Estado,Salud,IMSS Ord.,ISSSTE,IMSS Prosp.,DIF,PEMEX,SEDENA,SEMAR,OTRAS
Aguascalientes,363,317,14,S.R.,0,S.R.,0,S.R.,75
Baja California,410,435,28,29,S.R.,S.R.,2,2,91
Baja California Sur,187,81,51,S.R.,S.R.,S.R.,6,0,S.R.
Campeche,155,113,10,32,1,15,1,5,16
Coahuila,724,503,26,118,0,S.R.,0,S.R.,309
Colima,178,177,8,S.R.,0,S.R.,0,1,13
Chiapas,696,112,26,186,S.R.,7,0,0,9
Chihuahua,538,460,18,132,S.R.,S.R.,3,S.R.,200
Distrito Federal,5 928,841,572,1,6,75,8,24,120
Durango,1 229,116,49,131,0,S.R.,S.R.,0,0
Guanajuato,2 329,568,21,2,S.R.,40,2,S.R.,140
Guerrero,1 058,220,48,11,S.R.,S.R.,11,19,0
Hidalgo,1 585,158,24,116,14,28,0,S.R.,7
Jalisco,1 971,1 581,16,0,0,0,11,2,444
México,7 072,728,121,21,243,S.R.,108,S.R.,360
Michoacán,1 376,462,28,255,S.R.,S.R.,0,1,S.R.
Morelos,718,183,36,0,S.R.,S.R.,1,S.R.,S.R.
Nayarit,269,64,35,110,0,S.R.,0,0,5
Nuevo León,1 824,699,33,0,S.R.,13,3,S.R.,270
Oaxaca,691,150,60,935,0,45,0,3,15
Puebla,2 151,437,45,269,0,8,0,S.R.,191
Querétaro,578,373,53,0,3,S.R.,2,S.R.,36
Quintana Roo,537,326,92,S.R.,S.R.,S.R.,1,2,0
San Luis Potosí,1 521,373,56,359,S.R.,2,2,S.R.,73
Sinaloa,417,220,27,134,8,1,3,0,363
Sonora,1 164,299,3,0,S.R.,S.R.,4,5,184
Tabasco,319,10,7,S.R.,S.R.,67,0,1,49
Tamaulipas,1 023,383,14,128,4,98,0,2,57
Tlaxcala,455,57,8,0,0,S.R.,0,S.R.,0
Veracruz,1 467,252,70,502,0,159,6,21,6
Yucatán,719,328,42,293,0,S.R.,0,0,1
Zacatecas,373,44,38,254,0,S.R.,4,S.R.,11
