Estado,SALUD,IMSS-ORD,ISSSTE,IMSS-OP,DIF,PEMEX,SEDENA,SEMAR,OTRAS
Aguascalientes,502,271,0,N.A.,0,N.A.,1,N.A.,3
Baja California,935,706,33,22,N.A.,N.A.,10,5,185
Baja California Sur,580,34,56,N.A.,N.A.,N.A.,3,1,N.A.
Campeche,552,50,46,113,0,31,2,1,68
Coahuila,928,730,73,252,3,N.A.,15,N.A.,229
Colima,306,111,17,N.A.,0,N.A.,1,7,0
Chiapas,1 435,17,69,649,N.A.,23,17,0,13
Chihuahua,2 233,150,51,280,N.A.,N.A.,4,N.A.,284
Distrito Federal,12 382,461,799,3,14,129,75,20,139
Durango,2 163,139,56,311,0,N.A.,3,N.A.,3
Guanajuato,4 605,859,77,0,N.A.,54,2,N.A.,92
Guerrero,2 878,783,74,1,N.A.,N.A.,12,0,0
Hidalgo,3 544,129,54,297,65,30,0,N.A.,19
Jalisco,3 558,1 591,68,2,0,0,3,0,539
México,14 190,602,193,0,199,N.A.,54,N.A.,614
Michoacán,3 159,237,62,781,N.A.,N.A.,3,2,N.A.
Morelos,1 516,171,45,2,N.A.,N.A.,4,N.A.,N.A.
Nayarit,689,144,33,153,9,N.A.,0,1,20
Nuevo León,2 254,551,17,0,0,31,0,N.A.,1 210
Oaxaca,1 782,189,149,2 235,2,50,9,26,19
Puebla,7 249,668,99,780,0,15,12,N.A.,422
Querétaro,740,409,65,0,2,N.A.,N.A.,N.A.,5
Quintana Roo,1 025,392,64,N.A.,N.A.,N.A.,1,2,N.A.
San Luis Potosí,2 478,543,51,665,N.A.,4,0,N.A.,8
Sinaloa,861,176,93,293,5,0,10,7,223
Sonora,2 340,270,47,1,N.A.,N.A.,16,2,247
Tabasco,1 136,14,17,N.A.,N.A.,127,0,0,63
Tamaulipas,2 181,284,107,331,13,76,31,2,43
Tlaxcala,1 296,107,8,2,0,N.A.,2,N.A.,0
Veracruz,5 504,476,76,1 212,1,232,6,27,N.A.
Yucatán,1 563,194,30,579,2,N.A.,10,3,3
Zacatecas,810,79,24,321,0,N.A.,1,N.A.,2
