Estado,Salud,IMSS Ord.,ISSSTE,IMSS Prosp.,DIF,PEMEX,SEDENA,SEMAR,OTRAS
Aguascalientes,585,554,26,S.R.,0,S.R.,0,S.R.,161
Baja California,715,810,51,46,S.R.,S.R.,3,2,142
Baja California Sur,327,165,99,S.R.,S.R.,S.R.,6,0,S.R.
Campeche,292,203,26,75,2,34,2,18,30
Coahuila,1 304,901,50,213,0,S.R.,1,S.R.,528
Colima,313,309,25,S.R.,0,S.R.,0,1,27
Chiapas,1 239,203,49,324,S.R.,19,0,1,15
Chihuahua,978,836,40,250,S.R.,S.R.,6,S.R.,379
Distrito Federal,10 869,1 613,1 118,1,10,147,14,44,233
Durango,2 177,211,81,246,0,S.R.,S.R.,0,0
Guanajuato,4 094,1 041,39,3,S.R.,64,6,S.R.,214
Guerrero,1 997,440,101,27,S.R.,S.R.,13,31,0
Hidalgo,3 016,271,70,234,28,59,0,S.R.,16
Jalisco,3 388,2 688,44,0,0,0,17,2,770
México,13 064,1 298,234,51,459,S.R.,170,S.R.,598
Michoacán,2 507,808,40,418,S.R.,S.R.,0,1,S.R.
Morelos,1 338,328,70,0,S.R.,S.R.,2,S.R.,S.R.
Nayarit,486,111,58,187,2,S.R.,0,0,8
Nuevo León,3 291,1 251,65,0,S.R.,24,7,S.R.,467
Oaxaca,1 278,283,147,1 932,1,66,1,4,19
Puebla,4 175,777,134,530,0,19,0,S.R.,396
Querétaro,1 013,601,113,0,4,S.R.,2,S.R.,68
Quintana Roo,944,593,152,S.R.,S.R.,S.R.,4,4,0
San Luis Potosí,2 800,656,117,703,S.R.,3,7,S.R.,156
Sinaloa,751,384,60,227,10,1,6,0,619
Sonora,2 073,533,6,0,S.R.,S.R.,8,11,340
Tabasco,610,21,16,S.R.,S.R.,124,2,1,85
Tamaulipas,1 937,688,27,245,9,165,0,5,104
Tlaxcala,864,112,19,0,0,S.R.,0,S.R.,0
Veracruz,2 765,429,162,1 002,0,284,8,31,13
Yucatán,1 290,664,101,544,0,S.R.,0,0,1
Zacatecas,689,77,70,438,0,S.R.,8,S.R.,23
