Estado,<1,1 -- 4,5 -- 9,10 -- 14,15 -- 19,20 -- 24,25 -- 44,45 -- 49,50 -- 59,60 -- 64,65 y +,Ign
Aguascalientes,4,81,127,95,50,35,75,11,20,13,19,0
Baja California,2,107,202,206,91,62,266,45,63,27,62,0
Baja California Sur,0,33,50,54,23,14,72,12,28,10,14,0
Campeche,1,27,83,57,35,29,78,28,45,16,37,0
Coahuila,6,215,404,292,140,77,242,34,67,24,77,2
Colima,0,24,71,51,19,21,75,6,15,9,26,0
Chiapas,4,76,178,169,79,78,202,37,72,26,76,0
Chihuahua,8,244,449,323,133,149,371,109,145,53,138,4
Distrito Federal,12,579,891,885,651,544,1 149,257,389,148,357,0
Durango,1,165,282,228,104,65,116,48,44,31,47,0
Guanajuato,5,324,681,475,225,189,439,70,120,64,192,0
Guerrero,0,152,396,350,151,144,370,82,95,45,155,1
Hidalgo,2,168,310,258,150,111,289,73,125,62,154,0
Jalisco,19,461,800,646,335,258,679,105,155,78,213,4
México,21,835,1 239,1 214,803,518,1 387,259,420,195,402,4
Michoacán,8,264,445,341,192,121,329,70,99,56,155,2
Morelos,2,86,187,138,80,55,136,32,36,28,68,1
Nayarit,2,85,113,79,55,33,89,18,32,11,39,0
Nuevo León,14,247,501,427,263,191,437,128,163,81,96,0
Oaxaca,133,160,329,282,167,113,356,70,141,80,244,1
Puebla,3,325,621,601,355,231,656,136,254,111,267,2
Querétaro,3,64,140,107,72,43,123,15,29,12,30,0
Quintana Roo,3,69,159,112,61,88,201,22,42,14,27,1
San Luis Potosí,5,214,421,333,196,129,318,53,103,62,152,0
Sinaloa,3,111,180,176,56,38,128,34,45,18,60,1
Sonora,4,246,394,364,193,153,328,88,81,32,87,1
Tabasco,1,53,103,70,33,35,129,26,40,26,45,1
Tamaulipas,5,143,307,228,127,67,204,41,79,44,84,1
Tlaxcala,0,62,94,71,52,41,100,16,32,16,35,0
Veracruz,9,263,521,479,251,182,504,124,213,110,262,2
Yucatán,1,140,236,208,123,103,249,55,73,35,71,0
Zacatecas,3,83,165,111,58,35,102,22,32,21,47,1
